Configuration file: /etc/hostapd/openWifi.conf
rfkill: WLAN hard blocked
Using interface wlan1 with hwaddr 00:14:7c:67:15:a4 and ssid "polaris"
wlan1: interface state UNINITIALIZED->ENABLED
wlan1: AP-ENABLED 
